08-Tarea
…
## The following objects are masked from 'package:dplyr':
## 
##     src, summarize

## The following objects are masked from 'package:base':
## 
##     format.pval, units

hogar$decil<-as.character(cut2(hogar$ing_cor,qq))
hogar

## # A tibble: 19,479 x 15
##    folioviv foliohog est_dis upm   factor_hog ing_cor alimentos vestido vivienda
##    <chr>       <dbl> <chr>   <chr>      <dbl>   <dbl>     <dbl>   <dbl>    <dbl>
##  1 0100008~        1 005     00670        694  39787.    11173.     0      2199.
##  2 0100008~        1 005     00670        694  19524.     1941.     0         0 
##  3 0100008~        1 005     00670        694  99258.    16759.   489.     2989.
##  4 0100008~        1 005     00670        694  87884.     8678.   293.     1100 
##  5 0100010~        1 005     00600        660  84427.    12873.     0      3062.
##  6 0100010~        1 005     00600        660 232014.    18530.  4520.     1580 
##  7 0100010~        1 005     00600        660  90941.    10819.     0      5090.
##  8 0100010~        1 005     00600        660  70309.    12491.     0      1755 
##  9 0100010~        1 005     00600        660  92508.     6853.     0     15456.
## 10 0100018~        1 004     00570        583  80865.    12876.    84.1    2053 
## # ... with 19,469 more rows, and 6 more variables: salud <dbl>,
## #   transporte <dbl>, comunica <dbl>, educacion <dbl>, esparci <dbl>,
## #   decil <chr>
…
